Teaching the tidyverse in 2021
…
Original options: bootstrap, permute, or simulate

New options: bootstrap, permute, or draw (simulate is now superseded)

gss %>%
  specify(response = college, success = "degree") %>%
  hypothesize(null = "point", p= 0.5) %>%
  generate(reps = 10, type = "simulate") # now generates a message

## The `"simulate"` generation type has been renamed to `"draw"`. Use `type = "draw"` instead to quiet this message.

## Response: college (factor)
## Null Hypothesis: point
## # A tibble: 5,000 x 2
## # Groups:   replicate [10]
##    college   replicate
##    <fct>     <fct>    
##  1 no degree 1        
##  2 degree    1        
##  3 degree    1        
##  4 no degree 1        
##  5 no degree 1        
##  6 no degree 1        
##  7 no degree 1        
##  8 degree    1        
##  9 degree    1        
## 10 no degree 1        
## # â€¦ with 4,990 more rows
…
## # A tibble: 1 x 1
##    stat
##   <dbl>
## 1  2.09

null_dist <- gss %>%
  specify(response = hours) %>%
  hypothesize(null = "point", mu = 40) %>%
  assume(distribution = "t", df = nrow(gss) - 1)

## Error in assume(., distribution = "t", df = nrow(gss) - 1): could not find function "assume"

null_dist

## # A tibble: 1,000 x 2
##    replicate  stat
##        <int> <dbl>
##  1         1  40.4
##  2         2  39.3
##  3         3  40.5
##  4         4  39.3
##  5         5  39.7
##  6         6  39.5
##  7         7  40.5
##  8         8  39.8
##  9         9  39.6
## 10        10  40.0
## # â€¦ with 990 more rows
…
    day_of_week = lubridate::wday(time),
    month = lubridate::month(time)
  ) %>%
  select(-time) %>%
  mutate(
    cc = cut(cc, breaks = c(0, 1)),
    attach = cut(attach, breaks = c(0, 1)),
    dollar = cut(dollar, breaks = c(0, 1))
  ) %>%
  mutate(
    inherit = cut(inherit, breaks = c(0, 1, 5, 10, 20)),
    password = cut(password, breaks = c(0, 1, 5, 10, 20))
  )

## # A tibble: 3,921 x 20
##    spam  to_multiple cc    image attach dollar winner inherit viagra password
##    <fct> <fct>       <fct> <dbl> <fct>  <fct>  <fct>  <fct>    <dbl> <fct>   
##  1 0     0           <NA>      0 <NA>   <NA>   no     <NA>         0 <NA>    
##  2 0     0           <NA>      0 <NA>   <NA>   no     <NA>         0 <NA>    
##  3 0     0           <NA>      0 <NA>   <NA>   no     (0,1]        0 <NA>    
##  4 0     0           <NA>      0 <NA>   <NA>   no     <NA>         0 <NA>    
##  5 0     0           <NA>      0 <NA>   <NA>   no     <NA>         0 (1,5]   
##  6 0     0           <NA>      0 <NA>   <NA>   no     <NA>         0 (1,5]   
##  7 0     1           <NA>      0 <NA>   <NA>   no     <NA>         0 <NA>    
##  8 0     1           (0,1]     1 (0,1]  <NA>   no     <NA>         0 <NA>    
##  9 0     0           <NA>      0 <NA>   <NA>   no     <NA>         0 <NA>    
## 10 0     0           <NA>      0 <NA>   <NA>   no     <NA>         0 <NA>    
## # â€¦ with 3,911 more rows, and 10 more variables: num_char <dbl>,
## #   line_breaks <int>, format <fct>, re_subj <fct>, exclaim_subj <dbl>,
## #   urgent_subj <fct>, exclaim_mess <dbl>, number <fct>, day_of_week <dbl>,
## #   month <dbl>
…
