Teaching the tidyverse in 2021
…
## dtplyr for some tidyr functions!

```r
fish_encounters_dt <- lazy_dt(fish_encounters)

fish_encounters_wider <- fish_encounters_dt %>%
  pivot_wider(names_from = station, values_from = seen, values_fill = 0)

# result
fish_encounters_wider %>% as_tibble()
```

```
## # A tibble: 19 x 12
##   fish  Release I80_1 Lisbon  Rstr Base_TD   BCE   BCW  BCE2
##   <fct>   <int> <int>  <int> <int>   <int> <int> <int> <int>
## 1 4842        1     1      1     1       1     1     1     1
## 2 4843        1     1      1     1       1     1     1     1
## 3 4844        1     1      1     1       1     1     1     1
## 4 4845        1     1      1     1       1     0     0     0
## 5 4847        1     1      1     0       0     0     0     0
## 6 4848        1     1      1     1       0     0     0     0
## # … with 13 more rows, and 3 more variables: BCW2 <int>,
## #   MAE <int>, MAW <int>
```
…
**dbplyr** translates dplyr pipelines into equivalent **SQL** code

```r
fish_encounters_db <- memdb_frame(fish_encounters)

fish_encounters_wider <- fish_encounters_db %>%
  pivot_wider(names_from = station, values_from = seen, values_fill = 0)

# result
fish_encounters_wider %>% as_tibble()
```

```
## # A tibble: 19 x 12
##   fish  Release I80_1 Lisbon  Rstr Base_TD   BCE   BCW  BCE2
##   <chr>   <int> <int>  <dbl> <dbl>   <dbl> <dbl> <dbl> <dbl>
## 1 4842        1     1      1     1       1     1     1     1
## 2 4843        1     1      1     1       1     1     1     1
## 3 4844        1     1      1     1       1     1     1     1
## 4 4845        1     1      1     1       1     0     0     0
## 5 4847        1     1      1     0       0     0     0     0
## 6 4848        1     1      1     1       0     0     0     0
## # … with 13 more rows, and 3 more variables: BCW2 <dbl>,
## #   MAE <dbl>, MAW <dbl>
```
…
